id_produit ,code_Produit ,designation ,unite ,autorisation ,CategoriePrix ,QtePhysique ,NbMoisStock ,PrixBaseFormule ,codeProjet 
1,AR46001,PRESERVATIF MASCULIN bte/144,BOITE,ABCD,AR460,-105,5415.00000,0,images/uploads/medicTest.jpg
2,AC26150,TETRACYCLINE HYDROCHLORIDE 1%,TUBE,ABCD,F,0,0.00000,0,images/uploads/medicTest.jpg
