TAP version 13
ok 1 - ActivityExtendTest::testRules
ok 2 - ActivityExtendTest::testScopes
ok 3 - ActivityExtendTest::testAttributes
ok 4 - ActivityExtendTest::testSearch
ok 5 - ActivityExtendTest::testSearchExtend
ok 6 - ActivityExtendTest::testSearchWorkflow
ok 7 - ActivityExtendTest::testAfterSave
ok 8 - ContactExtendTest::testRules
ok 9 - ContactExtendTest::testScopes
ok 10 - ContactExtendTest::testAttributes
ok 11 - ContactExtendTest::testSearch
ok 12 - ContactExtendTest::testSearchExtend
ok 13 - ContactExtendTest::testSearchWorkflow
ok 14 - ContactExtendTest::testAfterSave
ok 15 - EmailExtendTest::testRules
ok 16 - EmailExtendTest::testAttributes
ok 17 - EmailExtendTest::testSearch
ok 18 - EmailExtendTest::testSearchExtend
ok 19 - FlashInfoExtendTest::testRules
ok 20 - FlashInfoExtendTest::testScopes
ok 21 - FlashInfoExtendTest::testAttributes
ok 22 - FlashInfoExtendTest::testSearch
ok 23 - FlashInfoExtendTest::testSearchExtend
ok 24 - FlashInfoExtendTest::testSearchWorkflow
ok 25 - GalleryPhotoExtendTest::testRules
ok 26 - GalleryPhotoExtendTest::testScopes
ok 27 - GalleryPhotoExtendTest::testAttributes
ok 28 - GalleryPhotoExtendTest::testSearch
ok 29 - GalleryPhotoExtendTest::testSearchExtend
ok 30 - GalleryPhotoExtendTest::testSearchWorkflow
ok 31 - GalleryVideoExtendTest::testRules
ok 32 - GalleryVideoExtendTest::testScopes
ok 33 - GalleryVideoExtendTest::testAttributes
ok 34 - GalleryVideoExtendTest::testSearch
ok 35 - GalleryVideoExtendTest::testSearchExtend
ok 36 - GalleryVideoExtendTest::testSearchWorkflow
ok 37 - HomeExtendTest::testRules
ok 38 - HomeExtendTest::testScopes
ok 39 - HomeExtendTest::testAttributes
ok 40 - HomeExtendTest::testSearch
ok 41 - HomeExtendTest::testSearchExtend
ok 42 - HomeExtendTest::testSearchWorkflow
ok 43 - NewsExtendTest::testRules
ok 44 - NewsExtendTest::testScopes
ok 45 - NewsExtendTest::testAttributes
ok 46 - NewsExtendTest::testSearch
ok 47 - NewsExtendTest::testSearchExtend
ok 48 - NewsExtendTest::testSearchWorkflow
ok 49 - OrganisationExtendTest::testRules
ok 50 - OrganisationExtendTest::testScopes
ok 51 - OrganisationExtendTest::testAttributes
ok 52 - OrganisationExtendTest::testSearch
ok 53 - OrganisationExtendTest::testSearchExtend
ok 54 - OrganisationExtendTest::testSearchWorkflow
ok 55 - OrganisationExtendTest::testAfterSave
ok 56 - PartnerExtendTest::testRules
ok 57 - PartnerExtendTest::testScopes
ok 58 - PartnerExtendTest::testAttributes
ok 59 - PartnerExtendTest::testSearch
ok 60 - PartnerExtendTest::testSearchExtend
ok 61 - PartnerExtendTest::testSearchWorkflow
ok 62 - PhotoExtendTest::testRules
ok 63 - PhotoExtendTest::testScopes
ok 64 - PhotoExtendTest::testAttributes
ok 65 - PhotoExtendTest::testSearch
ok 66 - PoolAnswerExtendTest::testRules
ok 67 - PoolAnswerExtendTest::testScopes
ok 68 - PoolAnswerExtendTest::testAttributes
ok 69 - PoolAnswerExtendTest::testSearch
ok 70 - PollExtendTest::testRules
ok 71 - PollExtendTest::testScopes
ok 72 - PollExtendTest::testAttributes
ok 73 - PollExtendTest::testSearch
ok 74 - PollExtendTest::testSearchExtend
ok 75 - PollExtendTest::testSearchWorkflow
ok 76 - PollExtendTest::testAfterLogicalDelete
ok 77 - PollExtendTest::testAfterSaveActivation
ok 78 - PollQuestionExtendTest::testRules
ok 79 - PollQuestionExtendTest::testScopes
ok 80 - PollQuestionExtendTest::testAttributes
ok 81 - PollQuestionExtendTest::testSearch
ok 82 - PollUserAnswerExtendTest::testRules
ok 83 - PollUserAnswerExtendTest::testScopes
ok 84 - PollUserAnswerExtendTest::testAttributes
ok 85 - PollUserAnswerExtendTest::testSearch
ok 86 - PresentationExtendTest::testRules
ok 87 - PresentationExtendTest::testScopes
ok 88 - PresentationExtendTest::testAttributes
ok 89 - PresentationExtendTest::testSearch
ok 90 - PresentationExtendTest::testSearchExtend
ok 91 - PresentationExtendTest::testSearchWorkflow
ok 92 - PresentationExtendTest::testAfterSave
ok 93 - SeoExtendTest::testRules
ok 94 - SeoExtendTest::testScopes
ok 95 - SeoExtendTest::testAttributes
ok 96 - SeoExtendTest::testSearchExtend
ok 97 - SeoExtendTest::testSearch
ok 98 - SeoExtendTest::testGetSeoParameters
ok 99 - SWFStatusesExtendTest::testRules
ok 100 - SWFStatusesExtendTest::testScopes
ok 101 - SWFStatusesExtendTest::testAttributes
ok 102 - SWFStatusesExtendTest::testSearch
ok 103 - SWFStatusesRelationsExtendSWFStatusesExtendTest::testRules
ok 104 - SWFStatusesRelationsExtendSWFStatusesExtendTest::testScopes
ok 105 - SWFStatusesRelationsExtendSWFStatusesExtendTest::testAttributes
ok 106 - SWFStatusesRelationsExtendSWFStatusesExtendTest::testSearch
ok 107 - SWFWorkflowExtendTest::testRules
ok 108 - SWFWorkflowExtendTest::testScopes
ok 109 - SWFWorkflowExtendTest::testAttributes
ok 110 - SWFWorkflowExtendTest::testSearch
ok 111 - UserExtendTest::testRules
ok 112 - UserExtendTest::testScopes
ok 113 - UserExtendTest::testAttributes
ok 114 - UserExtendTest::testSearch
ok 115 - UserExtendTest::testSearchExtend
ok 116 - UserExtendTest::testCryptPass
1..116
